[
  {
    "name": "Menu",
    "links": [
      {
        "name": "Account Details",
        "src": "/accounts/1"
      },
      {
        "name": "Transaction History",
        "src": "/accounts/3/history"
      }
    ]
  },
  {
    "name": "Form",
    "content": [
      {
        "alignment": null,
        "content": {
          "name": "Input",
          "label": "Account Name",
          "value": "Current Account",
          "type": "text"
        }
      },
      {
        "alignment": "left",
        "content": {
          "name": "Input2",
          "label": "Account Number",
          "value": "627638374837",
          "type": "text"
        }
      },
      {
        "alignment": "right",
        "content": {
          "name": "Input3",
          "label": "Card Nickname",
          "value": "",
          "type": "input"
        }
      },
      {
        "alignment": "center",
        "content": {
          "name": "Input4",
          "label": "Current Balance",
          "value": "R999,999.00",
          "type": "text"
        }
      }
    ]
  }
]