[
  {
    "name": "Menu",
    "links": [
      {
        "name": "Card Details",
        "src": "/cards/2"
      },
      {
        "name": "Transaction History",
        "src": "/cards/2/history"
      }
    ]
  },
  {
    "name": "Form",
    "content": [
      {
        "alignment": null,
        "content": {
          "name": "Input",
          "label": "Card Name",
          "value": "Money Marketing",
          "type": "text"
        }
      },
      {
        "alignment": "left",
        "content": {
          "name": "Input2",
          "label": "Card Description",
          "value": "Money Marketing",
          "type": "text"
        }
      },
      {
        "alignment": "right",
        "content": {
          "name": "Input3",
          "label": "Card Nickname",
          "value": "Savings",
          "type": "input"
        }
      },
      {
        "alignment": "center",
        "content": {
          "name": "Input4",
          "label": "Current Balance",
          "value": "25021.00",
          "type": "text"
        }
      }
    ]
  }
]